info face="Squares Bold" size=28 bold=0 italic=0 charset="" unicode=1 stretchH=100 smooth=1 aa=1 padding=0,0,0,0 spacing=1,1 outline=0
common lineHeight=28 base=23 scaleW=256 scaleH=256 pages=1 packed=0 alphaChnl=0 redChnl=0 greenChnl=0 blueChnl=0
page id=0 file="default_0.png"
chars count=62
char id=48   x=163   y=54    width=15    height=17    xoffset=2     yoffset=6     xadvance=19    page=0  chnl=15
char id=49   x=41    y=75    width=11    height=17    xoffset=1     yoffset=6     xadvance=13    page=0  chnl=15
char id=50   x=147   y=54    width=15    height=17    xoffset=1     yoffset=6     xadvance=17    page=0  chnl=15
char id=51   x=0     y=57    width=16    height=17    xoffset=0     yoffset=6     xadvance=17    page=0  chnl=15
char id=52   x=235   y=0     width=18    height=17    xoffset=0     yoffset=6     xadvance=18    page=0  chnl=15
char id=53   x=131   y=54    width=15    height=17    xoffset=1     yoffset=6     xadvance=17    page=0  chnl=15
char id=54   x=83    y=54    width=15    height=17    xoffset=2     yoffset=6     xadvance=18    page=0  chnl=15
char id=55   x=238   y=36    width=16    height=17    xoffset=0     yoffset=6     xadvance=16    page=0  chnl=15
char id=56   x=34    y=57    width=16    height=17    xoffset=1     yoffset=6     xadvance=18    page=0  chnl=15
char id=57   x=67    y=54    width=15    height=17    xoffset=1     yoffset=6     xadvance=18    page=0  chnl=15
char id=65   x=134   y=0     width=20    height=17    xoffset=0     yoffset=6     xadvance=19    page=0  chnl=15
char id=66   x=201   y=18    width=16    height=17    xoffset=2     yoffset=6     xadvance=19    page=0  chnl=15
char id=67   x=51    y=54    width=15    height=17    xoffset=2     yoffset=6     xadvance=17    page=0  chnl=15
char id=68   x=218   y=18    width=16    height=17    xoffset=2     yoffset=6     xadvance=20    page=0  chnl=15
char id=69   x=99    y=54    width=15    height=17    xoffset=2     yoffset=6     xadvance=18    page=0  chnl=15
char id=70   x=211   y=54    width=15    height=17    xoffset=2     yoffset=6     xadvance=17    page=0  chnl=15
char id=71   x=235   y=18    width=16    height=17    xoffset=2     yoffset=6     xadvance=20    page=0  chnl=15
char id=72   x=0     y=39    width=16    height=17    xoffset=2     yoffset=6     xadvance=20    page=0  chnl=15
char id=73   x=53    y=72    width=11    height=17    xoffset=1     yoffset=6     xadvance=13    page=0  chnl=15
char id=74   x=15    y=75    width=13    height=17    xoffset=0     yoffset=6     xadvance=15    page=0  chnl=15
char id=75   x=93    y=18    width=17    height=17    xoffset=2     yoffset=6     xadvance=18    page=0  chnl=15
char id=76   x=227   y=54    width=14    height=17    xoffset=2     yoffset=6     xadvance=16    page=0  chnl=15
char id=77   x=113   y=0     width=20    height=17    xoffset=2     yoffset=6     xadvance=24    page=0  chnl=15
char id=78   x=17    y=39    width=16    height=17    xoffset=2     yoffset=6     xadvance=20    page=0  chnl=15
char id=79   x=17    y=57    width=16    height=17    xoffset=2     yoffset=6     xadvance=20    page=0  chnl=15
char id=80   x=34    y=39    width=16    height=17    xoffset=2     yoffset=6     xadvance=19    page=0  chnl=15
char id=81   x=18    y=0     width=17    height=20    xoffset=2     yoffset=6     xadvance=20    page=0  chnl=15
char id=82   x=129   y=18    width=17    height=17    xoffset=2     yoffset=6     xadvance=19    page=0  chnl=15
char id=83   x=51    y=36    width=16    height=17    xoffset=1     yoffset=6     xadvance=18    page=0  chnl=15
char id=84   x=183   y=18    width=17    height=17    xoffset=0     yoffset=6     xadvance=17    page=0  chnl=15
char id=85   x=68    y=36    width=16    height=17    xoffset=2     yoffset=6     xadvance=20    page=0  chnl=15
char id=86   x=176   y=0     width=19    height=17    xoffset=0     yoffset=6     xadvance=18    page=0  chnl=15
char id=87   x=36    y=0     width=27    height=17    xoffset=0     yoffset=6     xadvance=27    page=0  chnl=15
char id=88   x=216   y=0     width=18    height=17    xoffset=0     yoffset=6     xadvance=18    page=0  chnl=15
char id=89   x=0     y=21    width=18    height=17    xoffset=0     yoffset=6     xadvance=18    page=0  chnl=15
char id=90   x=165   y=18    width=17    height=17    xoffset=0     yoffset=6     xadvance=17    page=0  chnl=15
char id=97   x=155   y=0     width=20    height=17    xoffset=0     yoffset=6     xadvance=19    page=0  chnl=15
char id=98   x=102   y=36    width=16    height=17    xoffset=2     yoffset=6     xadvance=19    page=0  chnl=15
char id=99   x=115   y=54    width=15    height=17    xoffset=2     yoffset=6     xadvance=17    page=0  chnl=15
char id=100  x=119   y=36    width=16    height=17    xoffset=2     yoffset=6     xadvance=20    page=0  chnl=15
char id=101  x=179   y=54    width=15    height=17    xoffset=2     yoffset=6     xadvance=18    page=0  chnl=15
char id=102  x=195   y=54    width=15    height=17    xoffset=2     yoffset=6     xadvance=17    page=0  chnl=15
char id=103  x=136   y=36    width=16    height=17    xoffset=2     yoffset=6     xadvance=20    page=0  chnl=15
char id=104  x=153   y=36    width=16    height=17    xoffset=2     yoffset=6     xadvance=20    page=0  chnl=15
char id=105  x=29    y=75    width=11    height=17    xoffset=1     yoffset=6     xadvance=13    page=0  chnl=15
char id=106  x=242   y=54    width=13    height=17    xoffset=0     yoffset=6     xadvance=15    page=0  chnl=15
char id=107  x=147   y=18    width=17    height=17    xoffset=2     yoffset=6     xadvance=18    page=0  chnl=15
char id=108  x=0     y=75    width=14    height=17    xoffset=2     yoffset=6     xadvance=16    page=0  chnl=15
char id=109  x=92    y=0     width=20    height=17    xoffset=2     yoffset=6     xadvance=24    page=0  chnl=15
char id=110  x=170   y=36    width=16    height=17    xoffset=2     yoffset=6     xadvance=20    page=0  chnl=15
char id=111  x=187   y=36    width=16    height=17    xoffset=2     yoffset=6     xadvance=20    page=0  chnl=15
char id=112  x=204   y=36    width=16    height=17    xoffset=2     yoffset=6     xadvance=19    page=0  chnl=15
char id=113  x=0     y=0     width=17    height=20    xoffset=2     yoffset=6     xadvance=20    page=0  chnl=15
char id=114  x=75    y=18    width=17    height=17    xoffset=2     yoffset=6     xadvance=19    page=0  chnl=15
char id=115  x=85    y=36    width=16    height=17    xoffset=1     yoffset=6     xadvance=18    page=0  chnl=15
char id=116  x=57    y=18    width=17    height=17    xoffset=0     yoffset=6     xadvance=17    page=0  chnl=15
char id=117  x=221   y=36    width=16    height=17    xoffset=2     yoffset=6     xadvance=20    page=0  chnl=15
char id=118  x=196   y=0     width=19    height=17    xoffset=0     yoffset=6     xadvance=18    page=0  chnl=15
char id=119  x=64    y=0     width=27    height=17    xoffset=0     yoffset=6     xadvance=27    page=0  chnl=15
char id=120  x=19    y=21    width=18    height=17    xoffset=0     yoffset=6     xadvance=18    page=0  chnl=15
char id=121  x=38    y=18    width=18    height=17    xoffset=0     yoffset=6     xadvance=18    page=0  chnl=15
char id=122  x=111   y=18    width=17    height=17    xoffset=0     yoffset=6     xadvance=17    page=0  chnl=15
kernings count=55
kerning first=121 second=113 amount=-1  
kerning first=121 second=111 amount=-1  
kerning first=121 second=106 amount=-2  
kerning first=121 second=103 amount=-1  
kerning first=121 second=97  amount=-2  
kerning first=119 second=106 amount=-1  
kerning first=119 second=97  amount=-1  
kerning first=118 second=106 amount=-1  
kerning first=118 second=97  amount=-1  
kerning first=116 second=106 amount=-2  
kerning first=116 second=97  amount=-1  
kerning first=112 second=122 amount=-1  
kerning first=112 second=120 amount=-1  
kerning first=112 second=106 amount=-2  
kerning first=112 second=97  amount=-1  
kerning first=108 second=121 amount=-2  
kerning first=108 second=119 amount=-1  
kerning first=108 second=118 amount=-1  
kerning first=108 second=116 amount=-2  
kerning first=102 second=106 amount=-4  
kerning first=102 second=97  amount=-2  
kerning first=97  second=121 amount=-1  
kerning first=97  second=119 amount=-1  
kerning first=97  second=118 amount=-1  
kerning first=97  second=116 amount=-1  
kerning first=89  second=81  amount=-1  
kerning first=89  second=79  amount=-1  
kerning first=89  second=74  amount=-2  
kerning first=89  second=71  amount=-1  
kerning first=89  second=65  amount=-2  
kerning first=87  second=74  amount=-1  
kerning first=87  second=65  amount=-1  
kerning first=86  second=74  amount=-1  
kerning first=86  second=65  amount=-1  
kerning first=50  second=52  amount=-1  
kerning first=84  second=74  amount=-2  
kerning first=84  second=65  amount=-1  
kerning first=80  second=90  amount=-1  
kerning first=80  second=88  amount=-1  
kerning first=80  second=74  amount=-2  
kerning first=52  second=55  amount=-1  
kerning first=80  second=65  amount=-1  
kerning first=76  second=89  amount=-2  
kerning first=76  second=87  amount=-1  
kerning first=76  second=86  amount=-1  
kerning first=76  second=84  amount=-2  
kerning first=70  second=74  amount=-4  
kerning first=53  second=55  amount=-1  
kerning first=70  second=65  amount=-2  
kerning first=54  second=55  amount=-1  
kerning first=65  second=89  amount=-1  
kerning first=65  second=87  amount=-1  
kerning first=55  second=52  amount=-2  
kerning first=65  second=86  amount=-1  
kerning first=65  second=84  amount=-1  
