{
	com.badlogic.gdx.graphics.Color: {
		white: { hex: FFFFFF },
		orange: { hex: E86A17 }
	}
	com.badlogic.gdx.scenes.scene2d.ui.CheckBox$CheckBoxStyle: {
		default: {
			font: { file: input.fnt },
			checkboxOff: box_unchecked,
			checkboxOn: box_checked
		}
	}
	com.badlogic.gdx.scenes.scene2d.ui.TextField$TextFieldStyle: {
		default: {
			background: field,
			font: { file: input.fnt },
			fontColor: orange,
			cursor: cursor
		}
	}
	com.badlogic.gdx.scenes.scene2d.ui.Label$LabelStyle: {
		default: {
			font: { file: input.fnt },
			fontColor: orange
		}
	}
	com.badlogic.gdx.scenes.scene2d.ui.TextButton$TextButtonStyle: {
		default: {
			up: button,
			over: button_hovered,
			down: button_pressed,
			font: { file: default.fnt },
			fontColor: white
		}
		confirm: {
			up: confirm_button,
			over: confirm_button_hovered,
			down: confirm_button_pressed,
			font: { file: default.fnt },
			fontColor: white
		}
		play: {
			up: play_button,
			over: play_button_hovered,
			down: play_button_pressed,
			font: { file: default.fnt },
			fontColor: white
		}
	}
}